4 Visualización | Ciencia de Datos para Activismo Jurídico
…
En general, para evitar la confusión asociada a variables con docenas de categorías se busca simplificar definiendo menos grupos. Por ejemplo, como hicimos al comienzo al separar por comunas, que son sólo quince, en lugar de por barrios.

4.5 Histogramas

Los histogramas son usados para mostrar la distribución de una variable continua. El histograma permite decir si los valores que toma cada observación se agrupan en torno a un valor “típico” o medio -como en el caso de la llamada distribución normal-, o en torno a dos valores frecuentes (distribución bimodal), o con dispersión sin picos ni valles, donde no hay valores típicos ni atípicos - distribución uniforme.

Por ejemplo, veamos la distribución de los barrios respecto a la variable “cantidad anual de delitos”. Para contabilizar el total de registros por barrio tenemos que agrupar los valores de esa columna, y hacer un resumen (summarise()) que extraiga el gran total:

delitos_anuales <- delitos %>% 
    group_by(barrio) %>% 
    summarise(gran_total = sum(total))

delitos_anuales

## # A tibble: 50 × 2
##    barrio      gran_total
##    <chr>            <int>
##  1 ""                 411
##  2 "Agronomía"        208
##  3 "Almagro"         2748
##  4 "Balvanera"       4503
##  5 "Barracas"        2422
##  6 "Belgrano"        2238
##  7 "Boca"            1059
##  8 "Boedo"           1213
##  9 "Caballito"       3050
## 10 "Chacarita"        920
## # … with 40 more rows
…
